{
  "@context": [
    "https://www.w3.org/2018/credentials/v1"
  ],
  "credentialSubject": {
    "gx-service-offering:dataExport": [
      {
        "gx-service-offering:accessType": "digital",
        "gx-service-offering:formatType": "mime/png",
        "gx-service-offering:requestType": "emails"
      }
    ],
    "gx-service-offering:dataProtectionRegime": [
      "GDPR2016"
    ],
    "gx-service-offering:dependsOn": [
      "https://compliance.gaia-x.eu/.well-known/serviceManagedPostgreSQLOVH.json",
      "https://compliance.gaia-x.eu/.well-known/serviceManagedK8sOVH.json"
    ],
    "gx-service-offering:description": "The Compliance Service will validate the shape and content of Self Descriptions. Required fields and consistency rules are defined in the Gaia-X Trust Framework.",
    "gx-service-offering:gdpr": [
      {
        "gx-service-offering:imprint": "https://gaia-x.eu/imprint/",
        "gx-service-offering:privacyPolicy": "https://gaia-x.eu/privacy-policy/"
      }
    ],
    "gx-service-offering:name": "Gaia-X Lab Compliance Service",
    "gx-service-offering:providedBy": "https://compliance.gaia-x.eu/.well-known/participant.json",
    "gx-service-offering:termsAndConditions": [
      {
        "gx-service-offering:hash": "myrandomhash",
        "gx-service-offering:url": "https://compliance.gaia-x.eu/terms"
      }
    ],
    "gx-service-offering:webAddress": "https://compliance.gaia-x.eu/",
    "id": "https://compliance.gaia-x.eu/.well-known/serviceComplianceService.json"
  },
  "id": "https://compliance.gaia-x.eu/.well-known/serviceComplianceService.json",
  "type": [
    "VerifiableCredential",
    "ServiceOfferingExperimental"
  ]
}
